.......................
----------------------------------------------------------------------
Ran 23 tests in 201.109s

OK
Name             Stmts   Miss Branch BrPart  Cover   Missing
------------------------------------------------------------
Collatz.py          51      1     22      1    97%   65, 64->65
TestCollatz.py      98      0      0      0   100%
------------------------------------------------------------
TOTAL              149      1     22      1    99%
