1 1 1
1 999999 525
999999 999999 259
1000 999000 525
999999 1 525
999001 1001 525
7000 7001 32
6000 5999 187
5999 6001 187
3000 3000 49
84934 59343 351
59293 439532 449
349355 3453 443
434236 5675 449
485485 594594 470
459 495349 449
6934 693694 509
9954 4939 262
4960 492395 449
395340 492933 449
4395 34992 311
49293 6943 324
953934 48305 525
95348 34935 351
39230 765 324
1023 12994 268
930232 3942 525
29493 2356 308
193442 39293 383
59239 39293 340
294596 49293 443
39294 49492 314
392994 94292 443
429694 49596 449
96854 85934 333
39686 49345 314
693846 493944 509
68485 53955 335
69392 69064 250
96874 28474 351
79694 9635 351
93023 48293 351
4934 48592 324
29245 92494 351
294962 39293 443
29506 4932 308
396043 94922 443
390535 39394 443
4935 595934 470
953 29393 308
49395 50304 296
49395 60402 340
394 5994 238
49205 200332 383
39496 34944 324
2954 23344 279
5946 60706 340
9585 9203 260
295 343 144
8534 2323 262
9593 49203 324
4956 593 238
495032 3929 449
49595 34923 324
49385 5929 324
94838 4823 351
9832 3845 262
4295 68392 340
2381 39495 324
29395 59394 340
59394 38283 340
4902 3949 215
49358 38329 314
4395 2894 238
293 1923 182
291 2193 182
1994 884 182
2882 38291 324
1923 8283 262
291 281 118
392 2921 217
942 1913 182
499 399 142
293 192 128
83 29 116
1929 1992 175
923 283 179
299 492 144
192 384 144
695 382 145
3925 5923 236
294 2939 217
3921 2919 238
3910 2834 238
192 193 120
193 291 128
19494 492 279
592 504 137
939 482 179
5960 949 238
3949 3954 145
3950 5906 236
4030 59394 340
53934 5934 340
38495 59394 340
5939 49395 324
39495 53994 340
5994 584 238
5993 4959 236
43583 4854 324
5995 4494 236
59394 69435 335
484 849 171
5906 5954 187
964 9494 262
59394 59334 242
535 5332 238
995049 53434 525
909090 707070 525
949 394 179
583 596 119
394 2939 217
599 4994 238
4996 49293 324
4939 59594 340
4929 69934 340
49392 39394 314
9695 49493 324
49395 23993 324
4993 5844 236
49596 40203 314
89485 93043 333
7584 83943 351
48853 48929 296
39935 38383 306
28382 48283 324
9594 38323 324
49293 4824 324
38875 23883 324
483 8283 262
824 3929 238
